Modellannahmen grafisch überprüfen - sesa blog
…
get_regression_table(lm1)
#> # A tibble: 2 x 7
#>   term      estimate std_error statistic p_value lower_ci upper_ci
#>   <chr>        <dbl>     <dbl>     <dbl>   <dbl>    <dbl>    <dbl>
#> 1 intercept     38.4      3.44     11.1        0    31.6      45.2
#> 2 wheels        10.1      2.43      4.15       0     5.28     14.9

6 Überprüfen der Annahmen

Die vorhergesagten Werte und die Residuen kann man sich so ausgeben lassen:

get_regression_points(lm1)
#> # A tibble: 142 x 5
#>       ID total_pr wheels total_pr_hat residual
#>    <int>    <dbl>  <dbl>        <dbl>    <dbl>
#>  1     1     51.6      1         48.5     3.09
#>  2     2     37.0      1         48.5   -11.4 
#>  3     3     45.5      1         48.5    -2.96
#>  4     4     44        1         48.5    -4.46
#>  5     5     71        2         58.5    12.5 
#>  6     6     45        0         38.4     6.62
#>  7     7     37.0      0         38.4    -1.36
#>  8     8     54.0      2         58.5    -4.56
#>  9     9     47        1         48.5    -1.46
#> 10    10     50        1         48.5     1.54
#> # … with 132 more rows
…
