…
<img src="{{< blogdown/postref >}}index_files/figure-html/unnamed-chunk-44-1.png" width="100%" style="display: block; margin: auto;" />

Puh, das Diagramm ist nicht sehr aussagekräftig.
Vielleicht besser als Tabelle?

flights4 %>% 
  filter(!is_extreme) %>% 
  select(dep_delay, dest, origin, carrier) %>% 
  group_by(dest, origin, carrier) %>% 
  summarise(depdelay_md = median(dep_delay, na.rm = T))
#> # A tibble: 128 x 4
#> # Groups:   dest, origin [37]
#>    dest  origin carrier depdelay_md
#>    <fct> <chr>  <chr>         <dbl>
#>  1 ATL   EWR    9E               -6
#>  2 ATL   EWR    DL               -3
#>  3 ATL   EWR    EV               -2
#>  4 ATL   EWR    UA               -1
#>  5 ATL   JFK    9E               -2
#>  6 ATL   JFK    DL               -1
#>  7 ATL   LGA    DL               -3
#>  8 ATL   LGA    EV               30
#>  9 ATL   LGA    FL                0
#> 10 ATL   LGA    MQ               -4
#> # … with 118 more rows
…
