Bayes in fünf Minuten - sesa blog
…
Mit welcher Wahrscheinlichkeit ist der Unterschied größer als Null?

Eine interessante Variante der Forschungsfrage ist zu fragen,
mit welcher Wahrscheinlichkeit - basierend auf den Daten und dem Modell -
man mit einem Unterschied größer als Null zwischen Gruppen rechnen kann?

Wandeln wir das Modellobjekt in eine Tabelle um:

m1_stipros <-
  m1 %>% 
  as_tibble()   # Modellergebnis m1 in Tabelle (tibble) umwandeln

## # A tibble: 4,000 × 3
##    `(Intercept)`    am sigma
##            <dbl> <dbl> <dbl>
##  1          15.8  8.25  4.56
##  2          18.9  5.32  5.23
##  3          15.7  8.23  4.10
##  4          15.7  8.76  4.54
##  5          16.0  9.43  4.82
##  6          18.6  4.69  5.04
##  7          15.3  9.21  4.97
##  8          16.8  8.39  5.03
##  9          16.2  8.17  3.66
## 10          17.2  7.06  5.04
## # … with 3,990 more rows
…
