…
Offensichtlich sind diese alphabetisch geordnet - nach dieser Ordnung richtet sich die Ordnung im Plot-Befehl (xyplot).

8.1 Umwandling in eine Faktor-Variable

In solchen Fällen bietet es sich an, die Character-Variable in eine Factor-Variable umzuwandeln; dann geht das Weitere einfacher.

oecd_short %>% 
  mutate(Country = factor(Country)) -> oecd_short

Möchte man wissen, wie viele unterschiedliche Werte eine Variable enthält, dann kann die Funktion distinct() verwenden:

oecd_short %>% 
  distinct(Country)
#> # A tibble: 34 x 1
#>    Country       
#>    <fct>         
#>  1 Australia     
#>  2 Austria       
#>  3 Belgium       
#>  4 Canada        
#>  5 Chile         
#>  6 Czech Republic
#>  7 Denmark       
#>  8 Estonia       
#>  9 Finland       
#> 10 France        
#> # … with 24 more rows
…
