…
t2 - t1
#> Time difference of 1.722152 mins

It may be worthwhile to save the result object to disk, in order to save computation time:

saveRDS(rf_res2, file = "rf_res2.rds")

11 View results

rf_res2 %>% 
  collect_metrics()
#> # A tibble: 25 x 8
#>     mtry min_n .metric .estimator  mean     n std_err .config              
#>    <int> <int> <chr>   <chr>      <dbl> <int>   <dbl> <chr>                
#>  1     4     9 roc_auc binary     0.877    10 0.0103  Preprocessor1_Model01
#>  2     3    13 roc_auc binary     0.879    10 0.0101  Preprocessor1_Model02
#>  3     6    30 roc_auc binary     0.876    10 0.00962 Preprocessor1_Model03
#>  4     6    26 roc_auc binary     0.876    10 0.00986 Preprocessor1_Model04
#>  5     6     2 roc_auc binary     0.869    10 0.0119  Preprocessor1_Model05
#>  6     3    23 roc_auc binary     0.879    10 0.0102  Preprocessor1_Model06
#>  7     5     6 roc_auc binary     0.876    10 0.0113  Preprocessor1_Model07
#>  8     2    39 roc_auc binary     0.873    10 0.0116  Preprocessor1_Model08
#>  9     1    10 roc_auc binary     0.869    10 0.0115  Preprocessor1_Model09
#> 10     1    37 roc_auc binary     0.868    10 0.0107  Preprocessor1_Model10
#> # … with 15 more rows
…
