Rowwise NA - sesa blog
…
3 Count NA rowwise

What we would like to achieve is to comfortable count the missing values per row.

Define helper function:

sum_isna <- function(x) sum(is.na(x))

4 Way 1: rowwise sum with mutate and c_across

mtcars %>% 
  rowwise() %>% 
  mutate(Na_n = sum_isna(c_across(everything()))) %>% 
  ungroup()
#> # A tibble: 32 × 12
#>      mpg   cyl  disp    hp  drat    wt  qsec    vs    am  gear  carb  Na_n
#>    <dbl> <dbl> <dbl> <dbl> <dbl> <dbl> <dbl> <dbl> <dbl> <dbl> <dbl> <int>
#>  1  NA       6  160     NA  3.9   2.62  16.5     0     1     4     4     2
#>  2  NA       6  160     NA  3.9   2.88  17.0     0     1     4     4     2
#>  3  NA       4  108     NA  3.85  2.32  18.6     1     1     4     1     2
#>  4  21.4     6  258    110  3.08  3.22  19.4     1     0     3     1     0
#>  5  18.7     8  360    175  3.15  3.44  17.0     0     0     3     2     0
#>  6  18.1     6  225    105  2.76  3.46  20.2     1     0     3     1     0
#>  7  14.3     8  360    245  3.21  3.57  15.8     0     0     3     4     0
#>  8  24.4     4  147.    62  3.69  3.19  20       1     0     4     2     0
#>  9  22.8     4  141.    95  3.92  3.15  22.9     1     0     4     2     0
#> 10  19.2     6  168.   123  3.92  3.44  18.3     1     0     4     4     0
#> # … with 22 more rows
…
Source

7 Way 4: cur_data()

cur_data() refers to the data in the current group, which is, in the case
of rowwise() the current row.

mtcars %>% 
  rowwise() %>% 
  mutate(NA_n = sum_isna(cur_data()))
#> # A tibble: 32 × 12
#> # Rowwise: 
#>      mpg   cyl  disp    hp  drat    wt  qsec    vs    am  gear  carb  NA_n
#>    <dbl> <dbl> <dbl> <dbl> <dbl> <dbl> <dbl> <dbl> <dbl> <dbl> <dbl> <int>
#>  1  NA       6  160     NA  3.9   2.62  16.5     0     1     4     4     2
#>  2  NA       6  160     NA  3.9   2.88  17.0     0     1     4     4     2
#>  3  NA       4  108     NA  3.85  2.32  18.6     1     1     4     1     2
#>  4  21.4     6  258    110  3.08  3.22  19.4     1     0     3     1     0
#>  5  18.7     8  360    175  3.15  3.44  17.0     0     0     3     2     0
#>  6  18.1     6  225    105  2.76  3.46  20.2     1     0     3     1     0
#>  7  14.3     8  360    245  3.21  3.57  15.8     0     0     3     4     0
#>  8  24.4     4  147.    62  3.69  3.19  20       1     0     4     2     0
#>  9  22.8     4  141.    95  3.92  3.15  22.9     1     0     4     2     0
#> 10  19.2     6  168.   123  3.92  3.44  18.3     1     0     4     4     0
#> # … with 22 more rows
…
