ModernDive, Chapter 05 - Exercises/Aufgaben (in Deutsch) - sesa blog
…
Warum wird er minimiert (und nicht maximiert)?

Lassen Sie sich diesen Term in R ausgeben für Ihre Regression zur Lebenserwartung nach Kontinent.

12.2 Lösung

Die Summe der quadrierten Residuen wird minimiert (s.o.).

Es wir die Lösung gesucht, bei der die Residuen minimal sind; die Vorhersage also maximal gut.

get_regression_points(lm3) %>% 
  select(residual)

## # A tibble: 142 x 1
##    residual
##       <dbl>
##  1  -26.9  
##  2   -1.23 
##  3   17.5  
##  4  -12.1  
##  5    1.71 
##  6    0.516
##  7    2.18 
##  8    4.91 
##  9   -6.67 
## 10    1.79 
## # … with 132 more rows
…
