Different ways to count NAs over multiple columns - sesa blog
…
Pros: Straightforward.

Cons: ?

Way 5: Counting NAs rowwise using dplyr

mtcars %>%
  rowwise %>%
  summarise(NA_per_row = sum(is.na(.)))
#> # A tibble: 32 x 1
#>    NA_per_row
#>         <int>
#>  1          0
#>  2          0
#>  3          0
#>  4          0
#>  5          0
#>  6          0
#>  7          0
#>  8          0
#>  9          0
#> 10          0
#> # ... with 22 more rows
…
