…
lm_alle <- lm(total_pr ~ ., 
            data = d_nona)  # kann etwas Zeit brauchen

vorwaerts <- step(object = lm0, 
                  direction = 'forward', 
                  scope = formula(lm_alle), 
                  trace = 0)  # Infos zum Fortschritt ausdrucken?

Dieses Vorgehen nennt man schrittweise (Vorwärts-)Regression.

Schauen wir uns das Ergebnis an:

tidy(vorwaerts)
#> # A tibble: 90 x 5
#>    term                                    estimate std.error statistic  p.value
#>    <chr>                                      <dbl>     <dbl>     <dbl>    <dbl>
#>  1 (Intercept)                               44.4        4.78    9.28   1.07e-12
#>  2 title10 Nintendo Wii Games - MarioKart…   71.8        5.99   12.0    1.05e-16
#>  3 titleBrand New Mario Kart Wii Comes wi…   -6.55       4.39   -1.49   1.42e- 1
#>  4 titleBRAND NEW NINTENDO 1 WII MARIO KA…    6.22       5.61    1.11   2.72e- 1
#>  5 titleBRAND NEW NINTENDO MARIO KART WIT…   -0.245      5.67   -0.0431 9.66e- 1
#>  6 titleBRAND NEW! FACTORY SEALED! MARIO …    0.397      6.13    0.0647 9.49e- 1
#>  7 titleMARIO KART - NINTENDO WII =======…    1.00       7.43    0.135  8.93e- 1
#>  8 titleMario Kart (Wii) with Wii Wheel      -6.15       6.88   -0.894  3.76e- 1
#>  9 titleMario Kart &amp; Wheel Nintendo W…   -7.72       6.12   -1.26   2.12e- 1
#> 10 titleMARIO KART for Nintendo Wii          -5.21       5.71   -0.913  3.65e- 1
#> # … with 80 more rows
…
