Execution time for largish data - sesa blog
…
t2 <- Sys.time()
time_taken <- t2 - t1

Time taken:

time_taken
#> Time difference of 5.754155 secs

Output:

taxi1_summary1
#> # A tibble: 99 x 3
#> # Groups:   payment_type [5]
#>    payment_type  hour tip_prop_max
#>           <int> <int>        <dbl>
#>  1            1    22        0.978
#>  2            1     2        0.971
#>  3            1     5        0.968
#>  4            1     1        0.958
#>  5            1    21        0.949
#>  6            1     0        0.885
#>  7            1     7        0.874
#>  8            1    20        0.820
#>  9            1     4        0.811
#> 10            1    23        0.774
#> # … with 89 more rows
…
t2 <- Sys.time()
time_taken <- t2 - t1

Time taken:

time_taken
#> Time difference of 1.124933 mins

Output:

taxi2_summary1
#> # A tibble: 97 x 3
#> # Groups:   payment_type [5]
#>    payment_type  hour tip_prop_max
#>           <int> <int>        <dbl>
#>  1            4    21        0.641
#>  2            4     2        0.167
#>  3            4    22        0.167
#>  4            4     1        0.143
#>  5            4     0        0    
#>  6            4     3        0    
#>  7            4     5        0    
#>  8            4     6        0    
#>  9            1     0      NaN    
#> 10            1     1      NaN    
#> # … with 87 more rows
…
