YACSDA Seitensprünge - sesa blog
…
6.4 Wie viele fehlende Werte gibt es? Was machen wir am besten damit?

d %>% 
  filter(is.na(affairs))
#> # A tibble: 0 x 10
#> # … with 10 variables: X1 <dbl>, affairs <dbl>, gender <chr>, age <dbl>,
#> #   yearsmarried <dbl>, children <chr>, religiousness <dbl>, education <dbl>,
#> #   occupation <dbl>, rating <dbl>

d %>% 
  drop_na()
#> # A tibble: 601 x 10
#>       X1 affairs gender   age yearsmarried children religiousness education
#>    <dbl>   <dbl> <chr>  <dbl>        <dbl> <chr>            <dbl>     <dbl>
#>  1     4       0 male      37        10    no                   3        18
#>  2     5       0 female    27         4    no                   4        14
#>  3    11       0 female    32        15    yes                  1        12
#>  4    16       0 male      57        15    yes                  5        18
#>  5    23       0 male      22         0.75 no                   2        17
#>  6    29       0 female    32         1.5  no                   2        17
#>  7    44       0 female    22         0.75 no                   2        12
#>  8    45       0 male      57        15    yes                  2        14
#>  9    47       0 female    32        15    yes                  4        16
#> 10    49       0 male      22         1.5  no                   4        14
#> # … with 591 more rows, and 2 more variables: occupation <dbl>, rating <dbl>
…
