…
d3 <- 
  d2 %>% 
  select(all_of(main_vars)) %>% 
  mutate(across(.cols = all_of(main_vars),
                .fns = median_split,
                .names = "{.col}_bin"  # "bin" wie "binär"
                ))

Natürlich hätte man das auch wieder einfacher lösen können (aber mit mehr Tipp-Aufwand):

d2 %>% 
  mutate(willingness_bin = ifelse(willingness > median(willingness), 1, 0)) %>% 
  select(willingness, willingness_bin)

## # A tibble: 164 x 2
##    willingness willingness_bin
##          <dbl>           <dbl>
##  1          10               1
##  2          10               1
##  3           3               0
##  4           7               0
##  5          10               1
##  6          10               1
##  7           9               0
##  8          10               1
##  9           9               0
## 10           5               0
## # … with 154 more rows
…
