titanic-tidymodels: boost - sesa blog
…
t2 - t1
#> Time difference of 55.77518 secs

It may be worthwhile to save the result object to disk, in order to save computation time:

saveRDS(boost_fit, file = "boost_fit.rds")

11 View results

boost_fit %>% 
  collect_metrics()
#> # A tibble: 100 x 10
#>     mtry min_n tree_depth learn_rate .metric .estimator  mean     n std_err
#>    <int> <int>      <int>      <dbl> <chr>   <chr>      <dbl> <int>   <dbl>
#>  1     3    23          2    6.70e-8 roc_auc binary     0.843     1      NA
#>  2     6    24         14    1.71e-7 roc_auc binary     0.866     1      NA
#>  3     3    26          4    7.00e-4 roc_auc binary     0.855     1      NA
#>  4     2    12          5    2.36e-6 roc_auc binary     0.854     1      NA
#>  5     3     9          9    9.25e-2 roc_auc binary     0.898     1      NA
#>  6     1    30          8    2.04e-2 roc_auc binary     0.851     1      NA
#>  7     7    16         10    1.24e-6 roc_auc binary     0.883     1      NA
#>  8     7    12         11    4.49e-5 roc_auc binary     0.888     1      NA
#>  9     6    15          4    1.91e-4 roc_auc binary     0.879     1      NA
#> 10     5    23          6    3.46e-7 roc_auc binary     0.866     1      NA
#> # … with 90 more rows, and 1 more variable: .config <chr>
…
