…
Fit model

titanic_fit_lr <-
  titanic_wf1 %>% 
  fit(data = train)

Model performance on train data:

titanic_fit_lr %>% 
  pull_workflow_fit() %>% 
  tidy()
#> # A tibble: 900 x 5
#>    term                                   estimate std.error   statistic p.value
#>    <chr>                                     <dbl>     <dbl>       <dbl>   <dbl>
#>  1 (Intercept)                          -37.3       1384525.    -2.69e-5    1.00
#>  2 PassengerId                           -0.000141      773.    -1.83e-7    1.00
#>  3 Pclass                                 2.26       686403.     3.29e-6    1.00
#>  4 Age                                    0.0159      28739.     5.52e-7    1.00
#>  5 SibSp                                 -2.78       914743.    -3.04e-6    1.00
#>  6 Parch                                -20.0       1101293.    -1.81e-5    1.00
#>  7 Fare                                   0.450       10009.     4.50e-5    1.00
#>  8 Name_Abbott..Mr..Rossmore.Edward      17.4       1274978.     1.37e-5    1.00
#>  9 Name_Abbott..Mrs..Stanton..Rosa.Hun…  70.2        885452.     7.93e-5    1.00
#> 10 Name_Abelson..Mr..Samuel              -2.26      1122039.    -2.01e-6    1.00
#> # … with 890 more rows
…
